Topic modeling workshop - Latent Dirichlet Allocation (LDA)
…
library(topicmodels)
library(ldatuning)
library(tidytext)

data("AssociatedPress")

Data jsou uložena jako document-term matrix, převeďme si je tedy do tibble.

ap_tidy <- AssociatedPress |> tidy()

ap_tidy

# A tibble: 302,031 × 3
   document term       count
      <int> <chr>      <dbl>
 1        1 adding         1
 2        1 adult          2
 3        1 ago            1
 4        1 alcohol        1
 5        1 allegedly      1
 6        1 allen          1
 7        1 apparently     2
 8        1 appeared       1
 9        1 arrested       1
10        1 assault        1
# ℹ 302,021 more rows
…
Dejme tomu, že 5 témat už má dobré metriky a není to zas tak moc…

“Fitneme” finální model:

ap_lda <- LDA(ap_dtm, k = 5, control = list(seed = 123))

# beta = pravděpodobnost, že slovo bylo "vygenerováno" daným tématem
ap_topics <- tidy(ap_lda, matrix = "beta")

ap_topics

# A tibble: 50,665 × 3
   topic term       beta
   <int> <chr>     <dbl>
 1     1 adding 1.46e- 4
 2     2 adding 1.01e- 4
 3     3 adding 1.35e- 4
 4     4 adding 1.96e- 4
 5     5 adding 3.15e- 4
 6     1 adult  3.14e- 5
 7     2 adult  1.65e-17
 8     3 adult  9.17e-16
 9     4 adult  3.41e- 5
10     5 adult  2.41e- 4
# ℹ 50,655 more rows
…
Teď k pravděpodobnosti témat v rámci jednotlivých dokumentů:

# gamma = podíl slov v dokumentu, které byly "vygenerovány" daným tématem
ap_documents <- tidy(ap_lda, matrix = "gamma")

ap_documents |>
  mutate(document = as.integer(document)) |>
  arrange(document, topic)

# A tibble: 11,230 × 3
   document topic    gamma
      <int> <int>    <dbl>
 1        1     1 0.000319
 2        1     2 0.0451  
 3        1     3 0.000319
 4        1     4 0.000319
 5        1     5 0.954   
 6        2     1 0.000312
 7        2     2 0.459   
 8        2     3 0.442   
 9        2     4 0.0975  
10        2     5 0.000312
# ℹ 11,220 more rows

Součet hodnot \gamma pro každý dokument je roven 1.

ap_documents |>
  group_by(document) |>
  summarise(gamma_sum = sum(gamma))

# A tibble: 2,246 × 2
   document gamma_sum
   <chr>        <dbl>
 1 1                1
 2 10               1
 3 100              1
 4 1000             1
 5 1001             1
 6 1002             1
 7 1003             1
 8 1004             1
 9 1005             1
10 1006             1
# ℹ 2,236 more rows

Dokument 1 je skoro čisté téma č. 5:

ap_tidy |>
  filter(document == 1) |>
  arrange(desc(count))

# A tibble: 186 × 3
   document term      count
      <int> <chr>     <dbl>
 1        1 police        7
 2        1 school        7
 3        1 teacher       7
 4        1 shot          5
 5        1 students      5
 6        1 boy           4
 7        1 boys          4
 8        1 classroom     4
 9        1 gun           3
10        1 guns          3
# ℹ 176 more rows

Ale dokument 2 je mix témat 2 a 3. Pojďme se podívat blíž:

ap_tidy |>
  filter(document == 2) |>
  arrange(desc(count))

# A tibble: 174 × 3
   document term      count
      <int> <chr>     <dbl>
 1        2 peres        13
 2        2 offer         9
 3        2 official      8
 4        2 bechtel       7
 5        2 rappaport     7
 6        2 israel        6
 7        2 oil           6
 8        2 memo          5
 9        2 pipeline      5
10        2 company       4
# ℹ 164 more rows
…
